[
	[
		{
			"header": "Регистрируйтесь<br>в сервисе «Бандеролька»",
			"text": "Получите почтовый адрес в США для заказа из американских магазинов. Это бесплатно!",
			"icon": "click"
		},
		{
			"header": "Будьте во всеоружии",
			"text": "Вы можете воспользоваться нашей <a href=\"#\" class=\"text-black\">“Помощью при покупке”</a> или выкупить товары самостоятельно. Чтобы покупать самим, зарегистрируйтесь также в <a href=\"#\" class=\"text-black\">магазинах</a>, которые вас интересуют. Добавьте товары в корзину и ждите скидок. Если 24 ноября цена на товар будет снижена, то эта информация отобразится в личном кабинете интернет-магазина. Заранее <a href=\"#\" class=\"text-black\">зарегистрируйтесь</a> на нашем сайте, чтобы оформить доставку на свой американский адрес.",
			"icon": "weapon"
		},
		{
			"header": "Установите напоминание",
			"text": "В Черную пятницу первые скидки появятся уже 24 ноября в восемь утра по Москве. <a href=\"#\" class=\"text-black\">Подпишитесь на нашу рассылку</a>, и мы напомним вам о начале большой распродажи, а также расскажем о самых выгодных предложениях в этот день.",
			"icon": "notice"
		},
		{
			"header": "Получите кэшбэк",
			"text": "Сервис <a href=\"#\">Mr. Rebates</a> собирает самые классные скидки и позволяет вернуть до 20% от стоимости покупки (даже в Черную пятницу). Если зарегистрироваться на этом сайте по <a href=\"#\">приглашению Бандерольки</a>, можно получить $5 на оплату доставки.",
			"icon": "dollar"
		}
	],
	[
		{
			"header": "Чем быстрее, тем лучше",
			"text": "Оформляйте доставку через <a href=\"#\">Бандерольку</a> как можно скорее! Не забывайте, что ноябрь и декабрь – само загруженный период для международных отправлений. Чтобы получить подарки к Новому году вовремя, отправляйте свою посылку уже в ноябре.",
			"icon": "timer"
		},
		{
			"header": "Установите расширение Бандерольки",
			"text": "Установите наше <a href=\"#\">расширение</a> в Google Chrome или в Яндекс.Браузер и экономьте время на оформлении заказа. Выбранный товар сразу попадет в корзину на сайте Бандерольки, и его можно будет оплатить в своем <a href=\"#\">личном кабинете</a>.",
			"icon": "web"
		},
		{
			"header": "Ищите дополнительные скидки",
			"text": "Чтобы воспользоваться самыми выгодными предложениями, обратите внимание на	сервисы-помощники. Вот на этих сайтах появятся лучшие предложения и скидки: <a href=\"#\">один, два, три, четыре.</a><br>А если не хотите искать сами, следите за нашими <a href=\"#\" class=\"text-black\">соцсетями</a>: мы оперативно размещаем горячие обновления.",
			"icon": "percent"
		},
		{
			"header": "Не зевайте",
			"text": "Совершайте покупки, не откладывая. Все купленные товары можно будет спокойно отсортировать в личном кабинете на сайте Бандерольки и вернуть то, что разонравилось (мы поможем с <a href=\"#\" class=\"text-black\">возвратом</a>).",
			"icon": "run"
		}
	]
]
